{
  "success": true,
  "search": {
    "type": "user",
    "value": "",
    "order": "ASC",
    "limit": 10,
    "page": 0,
    "startIndex": -10,
    "totalRecords": 456,
    "pages": 46
  },
  "result": [
    {
      "id": "437",
      "featured": true,
      "email": "lizelle.abadilla@saatchila.com",
      "guid": "40AA285FE7F8558A4D8893DA6AD4B4B4",
      "jobTitle": "Senior Financial Analyst",
      "dateCreated": "1405534379",
      "dateLogin": null,
      "nameFirst": "Lizelle",
      "nameLast": "Abadilla",
      "roleId": "1",
      "phoneOffice": "310.214.6156",
      "divisionId": "14",
      "divisionName": "Finance",
      "divisionSlug": "finance",
      "thumbnail": null,
      "thumbnailMime": null,
      "imageSmall": "img/test-image.jpg",
      "imageTiny": "\/media\/no-photo-tiny.jpg",
      "imageMedium": "\/media\/no-photo-medium.jpg",
      "imageLarge": "\/media\/no-photo-large.jpg"
    },
    {
      "id": "267",
      "featured": true,
      "email": "justin.abadilla@saatchila.com",
      "guid": "BA1D95E80E3DFBB92234A5E982B18A86",
      "jobTitle": "3D Artist",
      "dateCreated": "1405465090",
      "dateLogin": null,
      "nameFirst": "Justin",
      "nameLast": "Abadilla",
      "roleId": "1",
      "phoneOffice": "310.214.6358",
      "divisionId": "10",
      "divisionName": "3D",
      "divisionSlug": "3d",
      "thumbnail": "\/media\/BA1D95E80E3DFBB92234A5E982B18A86\/Justin-Abadilla-1405466105",
      "thumbnailMime": "image\/jpeg",
      "imageSmall": "img/test-image.jpg",
      "imageTiny": "\/media\/BA1D95E80E3DFBB92234A5E982B18A86\/Justin-Abadilla-1405466105-tiny.jpg",
      "imageMedium": "\/media\/BA1D95E80E3DFBB92234A5E982B18A86\/Justin-Abadilla-1405466105-medium.jpg",
      "imageLarge": "\/media\/BA1D95E80E3DFBB92234A5E982B18A86\/Justin-Abadilla-1405466105-large.jpg"
    },
    {
      "id": "463",
      "featured": false,
      "email": "namrata.abhyankar@saatchila.com",
      "guid": "CB8C9F2EB367EBC427C8C14FA370ACC9",
      "jobTitle": "Production Coordinator",
      "dateCreated": "1405535096",
      "dateLogin": null,
      "nameFirst": "Namrata",
      "nameLast": "Abhyankar",
      "roleId": "1",
      "phoneOffice": "310.214.6427",
      "divisionId": "5",
      "divisionName": "Production",
      "divisionSlug": "production",
      "thumbnail": null,
      "thumbnailMime": null,
      "imageSmall": "img/test-image.jpg",
      "imageTiny": "\/media\/no-photo-tiny.jpg",
      "imageMedium": "\/media\/no-photo-medium.jpg",
      "imageLarge": "\/media\/no-photo-large.jpg"
    },
    {
      "id": "268",
      "featured": false,
      "email": "mesrop.abrahamian@saatchila.com",
      "guid": "FFDE0B640A14FF75BB80F7D316842F59",
      "jobTitle": "3D Artist",
      "dateCreated": "1405465160",
      "dateLogin": null,
      "nameFirst": "Mesrop",
      "nameLast": "Abrahamian",
      "roleId": "1",
      "phoneOffice": "310.214.6231",
      "divisionId": "10",
      "divisionName": "3D",
      "divisionSlug": "3d",
      "thumbnail": "\/media\/FFDE0B640A14FF75BB80F7D316842F59\/Mesrop-Abrahamian-1405466083",
      "thumbnailMime": "image\/png",
      "imageSmall": "img/test-image.jpg",
      "imageTiny": "\/media\/FFDE0B640A14FF75BB80F7D316842F59\/Mesrop-Abrahamian-1405466083-tiny.png",
      "imageMedium": "\/media\/FFDE0B640A14FF75BB80F7D316842F59\/Mesrop-Abrahamian-1405466083-medium.png",
      "imageLarge": "\/media\/FFDE0B640A14FF75BB80F7D316842F59\/Mesrop-Abrahamian-1405466083-large.png"
    },
    {
      "id": "396",
      "featured": false,
      "email": "anthony.aguilar@saatchila.com",
      "guid": "0A1F71013FEAE20FD2FFD2907D610C76",
      "jobTitle": "3D Artist",
      "dateCreated": "1405533026",
      "dateLogin": null,
      "nameFirst": "Anthony",
      "nameLast": "Aguilar",
      "roleId": "1",
      "phoneOffice": "310.214.6000",
      "divisionId": "10",
      "divisionName": "3D",
      "divisionSlug": "3d",
      "thumbnail": null,
      "thumbnailMime": null,
      "imageSmall": "img/test-image.jpg",
      "imageTiny": "\/media\/no-photo-tiny.jpg",
      "imageMedium": "\/media\/no-photo-medium.jpg",
      "imageLarge": "\/media\/no-photo-large.jpg"
    },
    {
      "id": "419",
      "featured": false,
      "email": "brady.ajay@saatchila.com",
      "guid": "9F1064D33FD684300A0D53AF52CBD891",
      "jobTitle": "Content Strategist",
      "dateCreated": "1405533942",
      "dateLogin": null,
      "nameFirst": "Brady",
      "nameLast": "Ajay",
      "roleId": "1",
      "phoneOffice": "310.214.6000",
      "divisionId": "4",
      "divisionName": "Creative",
      "divisionSlug": "creative",
      "thumbnail": null,
      "thumbnailMime": null,
      "imageSmall": "img/test-image.jpg",
      "imageTiny": "\/media\/no-photo-tiny.jpg",
      "imageMedium": "\/media\/no-photo-medium.jpg",
      "imageLarge": "\/media\/no-photo-large.jpg"
    },
    {
      "id": "306",
      "featured": false,
      "email": "nazir.akil@saatchila.com",
      "guid": "DDCEED0D8B416049C60113BBCF66F9D1",
      "jobTitle": "Social Media Engagement Coordinator",
      "dateCreated": "1405468550",
      "dateLogin": null,
      "nameFirst": "Nazir",
      "nameLast": "Akil",
      "roleId": "1",
      "phoneOffice": "310.214.6159",
      "divisionId": "7",
      "divisionName": "Account Management",
      "divisionSlug": "account-management",
      "thumbnail": null,
      "thumbnailMime": null,
      "imageSmall": "img/test-image.jpg",
      "imageTiny": "\/media\/no-photo-tiny.jpg",
      "imageMedium": "\/media\/no-photo-medium.jpg",
      "imageLarge": "\/media\/no-photo-large.jpg"
    },
    {
      "id": "284",
      "featured": false,
      "email": "rebecca.albert@saatchila.com",
      "guid": "A4D8D2365B2EEC448D998650AA8247CC",
      "jobTitle": "Account Director",
      "dateCreated": "1405466654",
      "dateLogin": null,
      "nameFirst": "Rebecca",
      "nameLast": "Albert",
      "roleId": "1",
      "phoneOffice": "310.214.6482",
      "divisionId": "7",
      "divisionName": "Account Management",
      "divisionSlug": "account-management",
      "thumbnail": null,
      "thumbnailMime": null,
      "imageSmall": "img/test-image.jpg",
      "imageTiny": "\/media\/no-photo-tiny.jpg",
      "imageMedium": "\/media\/no-photo-medium.jpg",
      "imageLarge": "\/media\/no-photo-large.jpg"
    },
    {
      "id": "465",
      "featured": false,
      "email": "kevin.alford@saatchila.com",
      "guid": "B90ED8C98C86DBD76BA9AF0F39AAE4A4",
      "jobTitle": "Associate Producer",
      "dateCreated": "1405535152",
      "dateLogin": null,
      "nameFirst": "Kevin",
      "nameLast": "Alford",
      "roleId": "1",
      "phoneOffice": "310.214.6362",
      "divisionId": "5",
      "divisionName": "Production",
      "divisionSlug": "production",
      "thumbnail": null,
      "thumbnailMime": null,
      "imageSmall": "img/test-image.jpg",
      "imageTiny": "\/media\/no-photo-tiny.jpg",
      "imageMedium": "\/media\/no-photo-medium.jpg",
      "imageLarge": "\/media\/no-photo-large.jpg"
    },
    {
      "id": "605",
      "featured": false,
      "email": "lorriane.alper-kramer@saatchila.com",
      "guid": "6E32118A42FB5F100073F5F88CE2DEDA",
      "jobTitle": "Director, Integrated Art Services",
      "dateCreated": "1405538339",
      "dateLogin": null,
      "nameFirst": "Lorriane",
      "nameLast": "Alper-kramer",
      "roleId": "1",
      "phoneOffice": "310.214.6265",
      "divisionId": "23",
      "divisionName": "Art Studio",
      "divisionSlug": "art-studio",
      "thumbnail": null,
      "thumbnailMime": null,
      "imageSmall": "img/test-image.jpg",
      "imageTiny": "\/media\/no-photo-tiny.jpg",
      "imageMedium": "\/media\/no-photo-medium.jpg",
      "imageLarge": "\/media\/no-photo-large.jpg"
    }
  ]
}